Chapter 3: Data Wrangling with dplyr – Tidyverse & Machine Learning Workshop
…
The Core dplyr Verbs

1. filter() - Keep Rows That Match Conditions

# Simple filtering
penguins %>%
  filter(species == "Adelie")

# A tibble: 152 × 8
   species island    bill_length_mm bill_depth_mm flipper_length_mm body_mass_g
   <fct>   <fct>              <dbl>         <dbl>             <int>       <int>
 1 Adelie  Torgersen           39.1          18.7               181        3750
 2 Adelie  Torgersen           39.5          17.4               186        3800
 3 Adelie  Torgersen           40.3          18                 195        3250
 4 Adelie  Torgersen           NA            NA                  NA          NA
 5 Adelie  Torgersen           36.7          19.3               193        3450
 6 Adelie  Torgersen           39.3          20.6               190        3650
 7 Adelie  Torgersen           38.9          17.8               181        3625
 8 Adelie  Torgersen           39.2          19.6               195        4675
 9 Adelie  Torgersen           34.1          18.1               193        3475
10 Adelie  Torgersen           42            20.2               190        4250
# ℹ 142 more rows
# ℹ 2 more variables: sex <fct>, year <int>

# Multiple conditions (AND)
penguins %>%
  filter(species == "Adelie", bill_length_mm > 40)

# A tibble: 51 × 8
   species island    bill_length_mm bill_depth_mm flipper_length_mm body_mass_g
   <fct>   <fct>              <dbl>         <dbl>             <int>       <int>
 1 Adelie  Torgersen           40.3          18                 195        3250
 2 Adelie  Torgersen           42            20.2               190        4250
 3 Adelie  Torgersen           41.1          17.6               182        3200
 4 Adelie  Torgersen           42.5          20.7               197        4500
 5 Adelie  Torgersen           46            21.5               194        4200
 6 Adelie  Biscoe              40.6          18.6               183        3550
 7 Adelie  Biscoe              40.5          17.9               187        3200
 8 Adelie  Biscoe              40.5          18.9               180        3950
 9 Adelie  Dream               40.9          18.9               184        3900
10 Adelie  Dream               42.2          18.5               180        3550
# ℹ 41 more rows
# ℹ 2 more variables: sex <fct>, year <int>

# OR conditions
penguins %>%
  filter(species == "Adelie" | species == "Gentoo")

# A tibble: 276 × 8
   species island    bill_length_mm bill_depth_mm flipper_length_mm body_mass_g
   <fct>   <fct>              <dbl>         <dbl>             <int>       <int>
 1 Adelie  Torgersen           39.1          18.7               181        3750
 2 Adelie  Torgersen           39.5          17.4               186        3800
 3 Adelie  Torgersen           40.3          18                 195        3250
 4 Adelie  Torgersen           NA            NA                  NA          NA
 5 Adelie  Torgersen           36.7          19.3               193        3450
 6 Adelie  Torgersen           39.3          20.6               190        3650
 7 Adelie  Torgersen           38.9          17.8               181        3625
 8 Adelie  Torgersen           39.2          19.6               195        4675
 9 Adelie  Torgersen           34.1          18.1               193        3475
10 Adelie  Torgersen           42            20.2               190        4250
# ℹ 266 more rows
# ℹ 2 more variables: sex <fct>, year <int>

# Using %in% for multiple values
penguins %>%
  filter(species %in% c("Adelie", "Gentoo"))

# A tibble: 276 × 8
   species island    bill_length_mm bill_depth_mm flipper_length_mm body_mass_g
   <fct>   <fct>              <dbl>         <dbl>             <int>       <int>
 1 Adelie  Torgersen           39.1          18.7               181        3750
 2 Adelie  Torgersen           39.5          17.4               186        3800
 3 Adelie  Torgersen           40.3          18                 195        3250
 4 Adelie  Torgersen           NA            NA                  NA          NA
 5 Adelie  Torgersen           36.7          19.3               193        3450
 6 Adelie  Torgersen           39.3          20.6               190        3650
 7 Adelie  Torgersen           38.9          17.8               181        3625
 8 Adelie  Torgersen           39.2          19.6               195        4675
 9 Adelie  Torgersen           34.1          18.1               193        3475
10 Adelie  Torgersen           42            20.2               190        4250
# ℹ 266 more rows
# ℹ 2 more variables: sex <fct>, year <int>

# Complex conditions
penguins %>%
  filter(
    bill_length_mm > 45,
    flipper_length_mm < 210,
    !is.na(sex)
  )

# A tibble: 68 × 8
   species island    bill_length_mm bill_depth_mm flipper_length_mm body_mass_g
   <fct>   <fct>              <dbl>         <dbl>             <int>       <int>
 1 Adelie  Torgersen           46            21.5               194        4200
 2 Adelie  Torgersen           45.8          18.9               197        4150
 3 Adelie  Biscoe              45.6          20.3               191        4600
 4 Gentoo  Biscoe              46.2          14.5               209        4800
 5 Gentoo  Biscoe              45.1          14.5               207        5050
 6 Gentoo  Biscoe              48.7          15.7               208        5350
 7 Gentoo  Biscoe              45.3          13.8               208        4200
 8 Gentoo  Biscoe              47.5          14.2               209        4600
 9 Gentoo  Biscoe              48.4          14.4               203        4625
10 Gentoo  Biscoe              48.1          15.1               209        5500
# ℹ 58 more rows
# ℹ 2 more variables: sex <fct>, year <int>
…
2. select() - Choose Columns

# Select specific columns
penguins %>%
  select(species, island, bill_length_mm)

# A tibble: 344 × 3
   species island    bill_length_mm
   <fct>   <fct>              <dbl>
 1 Adelie  Torgersen           39.1
 2 Adelie  Torgersen           39.5
 3 Adelie  Torgersen           40.3
 4 Adelie  Torgersen           NA  
 5 Adelie  Torgersen           36.7
 6 Adelie  Torgersen           39.3
 7 Adelie  Torgersen           38.9
 8 Adelie  Torgersen           39.2
 9 Adelie  Torgersen           34.1
10 Adelie  Torgersen           42  
# ℹ 334 more rows
…
# Execute and collect results
result <- penguins_db %>%
  filter(bill_length_mm > 45) %>%
  select(species, island, bill_length_mm, body_mass_g) %>%
  collect()  # Bring into R

result

# A tibble: 165 × 4
   species island    bill_length_mm body_mass_g
   <chr>   <chr>              <dbl>       <int>
 1 Adelie  Torgersen           46          4200
 2 Adelie  Torgersen           45.8        4150
 3 Adelie  Biscoe              45.6        4600
 4 Gentoo  Biscoe              46.1        4500
 5 Gentoo  Biscoe              50          5700
 6 Gentoo  Biscoe              48.7        4450
 7 Gentoo  Biscoe              50          5700
 8 Gentoo  Biscoe              47.6        5400
 9 Gentoo  Biscoe              46.5        4550
10 Gentoo  Biscoe              45.4        4800
# ℹ 155 more rows
…
# Your solution
gapminder %>%
  mutate(decade = floor(year / 10) * 10) %>%
  group_by(continent, decade) %>%
  summarise(
    n_countries = n_distinct(country),
    total_pop = sum(pop) / 1e9,  # in billions
    avg_lifeExp = weighted.mean(lifeExp, pop),
    gdp_range = max(gdpPercap) - min(gdpPercap),
    .groups = "drop"
  ) %>%
  arrange(continent, decade)

# A tibble: 30 × 6
   continent decade n_countries total_pop avg_lifeExp gdp_range
   <fct>      <dbl>       <int>     <dbl>       <dbl>     <dbl>
 1 Africa      1950          52     0.502        39.9     5188.
 2 Africa      1960          52     0.632        44.2    18418.
 3 Africa      1970          52     0.813        48.3    21487.
 4 Africa      1980          52     1.07         52.0    16974.
 5 Africa      1990          52     1.40         53.3    14411.
 6 Africa      2000          52     1.76         54.0    12965.
 7 Americas    1950          25     0.732        61.2    13449.
 8 Americas    1960          25     0.914        64.0    18078.
 9 Americas    1970          25     1.11         66.7    22418.
10 Americas    1980          25     1.31         69.8    28061.
# ℹ 20 more rows
…
