Chapter 4: Data Tidying with tidyr – Tidyverse & Machine Learning Workshop
…
# Access nested data
print("First nested tibble:")

[1] "First nested tibble:"

nested_penguins$data[[1]]

# A tibble: 52 × 6
   bill_length_mm bill_depth_mm flipper_length_mm body_mass_g sex     year
            <dbl>         <dbl>             <int>       <int> <fct>  <int>
 1           39.1          18.7               181        3750 male    2007
 2           39.5          17.4               186        3800 female  2007
 3           40.3          18                 195        3250 female  2007
 4           NA            NA                  NA          NA <NA>    2007
 5           36.7          19.3               193        3450 female  2007
 6           39.3          20.6               190        3650 male    2007
 7           38.9          17.8               181        3625 female  2007
 8           39.2          19.6               195        4675 male    2007
 9           34.1          18.1               193        3475 <NA>    2007
10           42            20.2               190        4250 <NA>    2007
# ℹ 42 more rows

# Nested with custom columns
custom_nest <- penguins %>%
  group_by(species) %>%
  nest(
    bill_data = c(bill_length_mm, bill_depth_mm),
    body_data = c(flipper_length_mm, body_mass_g)
  )
print("Custom nested columns:")

[1] "Custom nested columns:"

custom_nest

# A tibble: 35 × 6
# Groups:   species [3]
   species island    sex     year bill_data         body_data        
   <fct>   <fct>     <fct>  <int> <list>            <list>           
 1 Adelie  Torgersen male    2007 <tibble [7 × 2]>  <tibble [7 × 2]> 
 2 Adelie  Torgersen female  2007 <tibble [8 × 2]>  <tibble [8 × 2]> 
 3 Adelie  Torgersen <NA>    2007 <tibble [5 × 2]>  <tibble [5 × 2]> 
 4 Adelie  Biscoe    female  2007 <tibble [5 × 2]>  <tibble [5 × 2]> 
 5 Adelie  Biscoe    male    2007 <tibble [5 × 2]>  <tibble [5 × 2]> 
 6 Adelie  Dream     female  2007 <tibble [9 × 2]>  <tibble [9 × 2]> 
 7 Adelie  Dream     male    2007 <tibble [10 × 2]> <tibble [10 × 2]>
 8 Adelie  Dream     <NA>    2007 <tibble [1 × 2]>  <tibble [1 × 2]> 
 9 Adelie  Biscoe    female  2008 <tibble [9 × 2]>  <tibble [9 × 2]> 
10 Adelie  Biscoe    male    2008 <tibble [9 × 2]>  <tibble [9 × 2]> 
# ℹ 25 more rows
…
gapminder_summary <- gapminder_nested %>%
  select(-data) %>%
  arrange(continent, decade)

print("Decade-wise trends by continent:")

[1] "Decade-wise trends by continent:"

gapminder_summary

# A tibble: 30 × 6
# Groups:   continent, decade [30]
   continent decade avg_lifeExp gdp_growth pop_total n_countries
   <fct>      <dbl>       <dbl>      <dbl>     <dbl>       <int>
 1 Africa      1950        40.2     1.88       0.502          52
 2 Africa      1960        44.3     2.74       0.632          52
 3 Africa      1970        48.5     0.619      0.813          52
 4 Africa      1980        52.5    -1.05       1.07           52
 5 Africa      1990        53.6     0.450      1.40           52
 6 Africa      2000        54.1     2.38       1.76           52
 7 Americas    1950        54.6     2.33       0.732          25
 8 Americas    1960        59.4     2.45       0.914          25
 9 Americas    1970        63.4     2.65       1.11           25
10 Americas    1980        67.2    -0.0866     1.31           25
# ℹ 20 more rows
…
print("Long format for analysis:")

[1] "Long format for analysis:"

long_filled

# A tibble: 21 × 3
   date       store sales
   <date>     <chr> <dbl>
 1 2023-01-01 a       100
 2 2023-01-01 b       200
 3 2023-01-01 c       150
 4 2023-01-02 a       100
 5 2023-01-02 b       210
 6 2023-01-02 c       160
 7 2023-01-03 a       100
 8 2023-01-03 b        NA
 9 2023-01-03 c       165
10 2023-01-04 a       120
# ℹ 11 more rows
…
