Chapter 9: Data Splitting and Resampling - The Foundation of Model Validation – Tidyverse & Machine Learning Workshop
…
Leave-One-Out Cross-Validation (LOOCV)

LOOCV is a special case where k = n (number of observations):

# Create a small dataset for LOOCV demonstration
small_data <- ames_train %>% 
  slice_sample(n = 50)  # LOOCV is computationally expensive

# Create LOOCV splits
loocv_splits <- loo_cv(small_data)
loocv_splits

# Leave-one-out cross-validation 
# A tibble: 50 x 2
   splits         id        
   <list>         <chr>     
 1 <split [49/1]> Resample1 
 2 <split [49/1]> Resample2 
 3 <split [49/1]> Resample3 
 4 <split [49/1]> Resample4 
 5 <split [49/1]> Resample5 
 6 <split [49/1]> Resample6 
 7 <split [49/1]> Resample7 
 8 <split [49/1]> Resample8 
 9 <split [49/1]> Resample9 
10 <split [49/1]> Resample10
# i 40 more rows
…
LOOCV characteristics: - Pros: Uses maximum data for training, deterministic (no randomness) - Cons: Computationally expensive, high variance, can overfit to the dataset

Bootstrap Methods

Bootstrap resampling draws samples WITH replacement from the original data. This creates datasets of the same size but with some observations repeated and others omitted.

Understanding Bootstrap

# Create bootstrap samples
ames_boot <- bootstraps(ames_train, times = 25)
ames_boot

# Bootstrap sampling 
# A tibble: 25 x 2
   splits             id         
   <list>             <chr>      
 1 <split [2197/804]> Bootstrap01
 2 <split [2197/819]> Bootstrap02
 3 <split [2197/822]> Bootstrap03
 4 <split [2197/798]> Bootstrap04
 5 <split [2197/814]> Bootstrap05
 6 <split [2197/812]> Bootstrap06
 7 <split [2197/794]> Bootstrap07
 8 <split [2197/825]> Bootstrap08
 9 <split [2197/819]> Bootstrap09
10 <split [2197/806]> Bootstrap10
# i 15 more rows
…
