Chapter 13: Hyperparameter Tuning - Finding the Sweet Spot – Tidyverse & Machine Learning Workshop
…
# Combine into workflow
elastic_workflow <- workflow() %>%
  add_recipe(simple_recipe) %>%
  add_model(elastic_spec)

# Define the grid
elastic_grid <- grid_regular(
  penalty(range = c(-3, 0), trans = log10_trans()),  # 10^-3 to 10^0
  mixture(range = c(0, 1)),                          # 0 (ridge) to 1 (lasso)
  levels = c(10, 5)  # 10 penalty values, 5 mixture values = 50 combinations
)

print(elastic_grid)

# A tibble: 50 x 2
   penalty mixture
     <dbl>   <dbl>
 1 0.001         0
 2 0.00215       0
 3 0.00464       0
 4 0.01          0
 5 0.0215        0
 6 0.0464        0
 7 0.1           0
 8 0.215         0
 9 0.464         0
10 1             0
# i 40 more rows
…
